Division,WeightClassKg,Place,Name,Team,BodyweightKg,Best3SquatKg,Best3BenchKg,Best3DeadliftKg,TotalKg,Equipment,Event,Sex
Boys,51.71,1,Chandler McVan,Waco Reicher Catholic,49.08,86.18,43.09,115.67,244.94,Single-ply,SBD,M
Boys,55.79,1,Fausto Rodriguez,West,53.61,156.49,95.25,154.22,405.97,Single-ply,SBD,M
Boys,55.79,2,Isaac Santillan,Clifton,51.94,140.61,81.65,147.42,369.68,Single-ply,SBD,M
Boys,55.79,3,Robbie Brewer,Clifton,55.43,145.15,81.65,113.4,340.19,Single-ply,SBD,M
Boys,55.79,4,Kolten Mueller,Moody,54.88,115.67,77.11,136.08,328.85,Single-ply,SBD,M
Boys,55.79,5,Albert Perales,Waco Connally,53.43,108.86,72.57,124.74,306.17,Single-ply,SBD,M
Boys,55.79,6,Joe Guerra,Robinson,55.07,117.93,52.16,124.74,294.84,Single-ply,SBD,M
Boys,55.79,7,Ian Howard,Robinson,55.79,111.13,63.5,111.13,285.76,Single-ply,SBD,M
Boys,55.79,8,Jared Rocha,Waco Reicher Catholic,53.07,90.72,47.63,120.2,258.55,Single-ply,SBD,M
Boys,59.87,1,Philip Sharp,Robinson,57.06,145.15,95.25,185.97,426.38,Single-ply,SBD,M
Boys,59.87,2,Alex Reynoso,West,58.79,124.74,74.84,136.08,335.66,Single-ply,SBD,M
Boys,59.87,3,Greg Norman,Grandview,59.87,140.61,70.31,122.47,333.39,Single-ply,SBD,M
Boys,67.13,1,Cory Sauer,Robinson,66.22,185.97,117.93,183.7,487.61,Single-ply,SBD,M
Boys,67.13,2,Bobby Hanson,Axtell,61.51,147.42,95.25,167.83,410.5,Single-ply,SBD,M
Boys,67.13,3,Dalton Wiethorn,West,66.5,142.88,92.99,156.49,392.36,Single-ply,SBD,M
Boys,67.13,4,Jose Hinojosa,Moody,61.87,147.42,90.72,151.95,390.09,Single-ply,SBD,M
Boys,67.13,5,Nathan Gerik,West,67.13,145.15,99.79,145.15,390.09,Single-ply,SBD,M
Boys,67.13,6,Justin O'Neal,Clifton,60.1,136.08,83.91,151.95,371.95,Single-ply,SBD,M
Boys,67.13,7,Preston Johnson,West,62.23,120.2,77.11,120.2,317.51,Single-ply,SBD,M
Boys,67.13,8,Luke Brookshire,Crawford,67.13,113.4,65.77,136.08,315.25,Single-ply,SBD,M
Boys,67.13,9,Hunter Pressley,Waco Connally,62.05,124.74,70.31,113.4,308.44,Single-ply,SBD,M
Boys,67.13,10,Gavin Isham,Bosqueville,64.86,111.13,65.77,127.01,303.91,Single-ply,SBD,M
Boys,67.13,11,Dalton Stith,Moody,62.51,122.47,70.31,99.79,292.57,Single-ply,SBD,M
Boys,67.13,DQ,Phillip Hickman,Waco Reicher Catholic,66.22,111.13,81.65,,,Single-ply,SBD,M
Boys,74.84,1,Devyn Hebbe,Axtell,74.48,260.82,113.4,235.87,610.08,Single-ply,SBD,M
Boys,74.84,2,Lucas Steinkamp,Crawford,73.75,210.92,131.54,170.1,512.56,Single-ply,SBD,M
Boys,74.84,3,Josh Turner #8,McGregor,67.36,156.49,92.99,154.22,403.7,Single-ply,SBD,M
Boys,74.84,4,Dustin Richter,Bosqueville,72.67,140.61,74.84,161.03,376.48,Single-ply,SBD,M
Boys,74.84,5,Armani Johnson,Robinson,70.03,147.42,65.77,161.03,374.21,Single-ply,SBD,M
Boys,74.84,6,Blaine Waggoner,Waco Reicher Catholic,71.4,140.61,90.72,129.27,360.61,Single-ply,SBD,M
Boys,74.84,7,Noah Jenkins,McGregor,73.39,136.08,70.31,142.88,349.27,Single-ply,SBD,M
Boys,74.84,8,Ronnie Macado,McGregor,74.03,127.01,79.38,142.88,349.27,Single-ply,SBD,M
Boys,74.84,9,Andy Cox,Robinson,69.04,122.47,81.65,142.88,347,Single-ply,SBD,M
Boys,74.84,10,Dylan Martin,Valley Mills,69.49,108.86,72.57,136.08,317.51,Single-ply,SBD,M
Boys,74.84,11,Colton Wilson,Bosqueville,74.84,117.93,65.77,124.74,308.44,Single-ply,SBD,M
Boys,74.84,12,Drew Hargrove,Moody,68.58,102.06,70.31,117.93,290.3,Single-ply,SBD,M
Boys,74.84,13,Ian Smith,Bosqueville,69.4,117.93,52.16,108.86,278.96,Single-ply,SBD,M
Boys,74.84,14,Caleb Browder,McGregor,68.95,108.86,49.9,106.59,265.35,Single-ply,SBD,M
Boys,82.1,1,Drew Roberts,Bosqueville,81.83,188.24,124.74,181.44,494.42,Single-ply,SBD,M
Boys,82.1,2,Alex Hankhouse,Bosqueville,80.38,183.7,108.86,183.7,476.27,Single-ply,SBD,M
Boys,82.1,3,Fernando Fernandez,Chilton,79.56,170.1,108.86,195.04,474,Single-ply,SBD,M
Boys,82.1,4,Miguel Rivera,Clifton,78.47,181.44,97.52,183.7,462.66,Single-ply,SBD,M
Boys,82.1,5,Marc Gutierrez,Clifton,75.66,158.76,102.06,176.9,437.72,Single-ply,SBD,M
Boys,82.1,6,Dane Mace,McGregor,81.74,163.29,113.4,158.76,435.45,Single-ply,SBD,M
Boys,82.1,7,Paeton McFarlin,West,77.56,158.76,97.52,136.08,392.36,Single-ply,SBD,M
Boys,82.1,8,Bodee Humphreys,Clifton,77.47,158.76,83.91,136.08,378.75,Single-ply,SBD,M
Boys,82.1,9,Richard Zamora,Waco Connally,81.19,140.61,106.59,127.01,374.21,Single-ply,SBD,M
Boys,82.1,10,Tanner Mitchell,Crawford,81.19,138.35,77.11,136.08,351.53,Single-ply,SBD,M
Boys,82.1,11,Cooper Wagenschein,Robinson,78.38,136.08,72.57,140.61,349.27,Single-ply,SBD,M
Boys,82.1,12,James Harrison,Crawford,80.65,108.86,81.65,136.08,326.59,Single-ply,SBD,M
Boys,82.1,13,Zach Turner #2,McGregor,79.2,104.33,74.84,97.52,276.69,Single-ply,SBD,M
Boys,82.1,14,Ryan Perez,Waco Reicher Catholic,76.38,113.4,47.63,102.06,263.08,Single-ply,SBD,M
Boys,82.1,DQ,Cade Bennett,Grandview,79.83,106.59,,120.2,,Single-ply,SBD,M
Boys,89.81,1,Michael Autenrieth,Waco Reicher Catholic,88.9,217.72,129.27,213.19,560.19,Single-ply,SBD,M
Boys,89.81,2,Mason Oliver,Clifton,86.91,165.56,83.91,226.8,476.27,Single-ply,SBD,M
Boys,89.81,3,Eric Rosson,Grandview,87.63,204.12,111.13,161.03,476.27,Single-ply,SBD,M
Boys,89.81,4,Hernan Arroyo,Moody,82.92,167.83,102.06,176.9,446.79,Single-ply,SBD,M
Boys,89.81,5,Ben Roberson,Robinson,84.01,158.76,106.59,165.56,430.91,Single-ply,SBD,M
Boys,89.81,6,Aaron Benitez,McGregor,88.27,165.56,111.13,154.22,430.91,Single-ply,SBD,M
Boys,89.81,7,Lorenzo Vargas,Waco Reicher Catholic,86.73,163.29,88.45,174.63,426.38,Single-ply,SBD,M
Boys,89.81,8,Tristan Fletcher,Moody,85.37,147.42,102.06,158.76,408.23,Single-ply,SBD,M
Boys,89.81,9,Morgan Marshall #1,Crawford,85,161.03,99.79,145.15,405.97,Single-ply,SBD,M
Boys,89.81,10,Matt Sparks,West,89.45,142.88,92.99,158.76,394.63,Single-ply,SBD,M
Boys,89.81,11,Ryan Lloyd,Clifton,87.54,151.95,92.99,145.15,390.09,Single-ply,SBD,M
Boys,89.81,12,Teel Mesmer,Moody,83.91,140.61,74.84,156.49,371.95,Single-ply,SBD,M
Boys,89.81,13,Nick Barrios,West,86.64,154.22,86.18,129.27,369.68,Single-ply,SBD,M
Boys,89.81,14,Gustavo Aguilar,Moody,86.55,124.74,81.65,158.76,365.14,Single-ply,SBD,M
Boys,89.81,DQ,Lance Sembera,West,82.74,142.88,,136.08,,Single-ply,SBD,M
Boys,99.79,1,Jason Marroquin,Axtell,99.06,235.87,133.81,244.94,614.62,Single-ply,SBD,M
Boys,99.79,2,Alex Parsons,McGregor,90.72,247.21,124.74,226.8,598.74,Single-ply,SBD,M
Boys,99.79,3,Daniel Fraire,West,95.62,222.26,127.01,172.37,521.63,Single-ply,SBD,M
Boys,99.79,4,Franco Landeros,Crawford,97.61,183.7,113.4,197.31,494.42,Single-ply,SBD,M
Boys,99.79,5,Will Worrell,Crawford,97.79,174.63,104.33,195.04,474,Single-ply,SBD,M
Boys,99.79,6,Isaac Weathers,Chilton,98.25,165.56,92.99,195.04,453.59,Single-ply,SBD,M
Boys,99.79,7,Jared Grooms,Waco Reicher Catholic,90.72,165.56,102.06,174.63,442.25,Single-ply,SBD,M
Boys,99.79,8,Cameron Fimbres,Waco Connally,95.62,172.37,99.79,142.88,415.04,Single-ply,SBD,M
Boys,99.79,9,Tanner Sparks,West,97.89,154.22,97.52,163.29,415.04,Single-ply,SBD,M
Boys,99.79,10,Dawson Brown,McGregor,97.61,142.88,95.25,158.76,396.89,Single-ply,SBD,M
Boys,99.79,11,Chance Boetcher,Waco Reicher Catholic,96.62,147.42,77.11,170.1,394.63,Single-ply,SBD,M
Boys,99.79,12,Kolten Gonzalez,Waco Reicher Catholic,91.53,154.22,88.45,147.42,390.09,Single-ply,SBD,M
Boys,99.79,DQ,Isaac Contreras,Moody,99.79,149.69,86.18,,,Single-ply,SBD,M
Boys,99.79,DQ,Bryce Latson,Grandview,94.8,210.92,,181.44,,Single-ply,SBD,M
Boys,109.77,1,Eric Marton,Axtell,103.78,238.14,133.81,226.8,598.74,Single-ply,SBD,M
Boys,109.77,2,Steven Frausto,Waco Connally,101.42,226.8,120.2,201.85,548.85,Single-ply,SBD,M
Boys,109.77,3,Zach Karnowski,Moody,101.06,158.76,106.59,154.22,419.57,Single-ply,SBD,M
Boys,109.77,4,Trace Snyder,Robinson,107.41,124.74,58.97,117.93,301.64,Single-ply,SBD,M
Boys,109.77,DQ,Payton Price #1,Grandview,104.33,,,136.08,,Single-ply,SBD,M
Boys,124.74,1,Robert Gober,Waco Connally,119.57,247.21,136.08,201.85,585.13,Single-ply,SBD,M
Boys,124.74,2,Brayan Villa,Grandview,112.4,219.99,154.22,188.24,562.45,Single-ply,SBD,M
Boys,124.74,3,Nathan Roach,Waco Connally,110,199.58,111.13,215.46,526.17,Single-ply,SBD,M
Boys,124.74,4,Crispin Salinas,Chilton,123.29,151.95,88.45,183.7,424.11,Single-ply,SBD,M
Boys,124.74,5,Hunter Straten,Moody,113.58,142.88,83.91,142.88,369.68,Single-ply,SBD,M
Boys,124.74,6,Tristan Johansen,Crawford,121.2,142.88,68.04,136.08,347,Single-ply,SBD,M
Boys,124.74+,1,Tyler Flowers,Bosqueville,132,231.33,149.69,235.87,616.89,Single-ply,SBD,M
Boys,124.74+,2,Jaylen Tobler,Waco Connally,166.11,251.74,108.86,154.22,514.83,Single-ply,SBD,M
Boys,124.74+,3,Seth Kohlscheen,Crawford,129.09,208.65,108.86,163.29,480.81,Single-ply,SBD,M
Boys,124.74+,4,Jacob Villa,Robinson,132.54,138.35,120.2,154.22,412.77,Single-ply,SBD,M
