Division,WeightClassKg,Place,Name,Team,BodyweightKg,Best3SquatKg,Best3BenchKg,Best3DeadliftKg,TotalKg,Equipment,Event,Sex
Boys,51.71,1,Austen Campbell,Sour Lake Hardin-Jefferson,51.71,127.01,81.65,142.88,351.53,Single-ply,SBD,M
Boys,55.79,2,Juan Castillo,Cleveland,51.94,124.74,79.38,136.08,340.19,Single-ply,SBD,M
Boys,55.79,3,David Kelley,Cleveland,51.94,117.93,61.23,113.4,292.57,Single-ply,SBD,M
Boys,59.87,1,Joseph Kelley,Cleveland,55.88,172.37,106.59,158.76,437.72,Single-ply,SBD,M
Boys,59.87,2,Devin Leal,Cleveland,56.02,104.33,61.23,113.4,278.96,Single-ply,SBD,M
Boys,59.87,1,Isaias Frutos,Cleveland,59.69,133.81,83.91,158.76,376.48,Single-ply,SBD,M
Boys,67.13,2,Benny Gonzalez,Cleveland,60.1,136.08,79.38,142.88,358.34,Single-ply,SBD,M
Boys,67.13,3,Samuel Martinez,Cleveland,60.1,133.81,70.31,133.81,337.93,Single-ply,SBD,M
Boys,67.13,4,Chad Currie,Coldspring-Oakhurst,60.1,122.47,79.38,108.86,310.71,Single-ply,SBD,M
Boys,59.87,DQ,Rey Espinoza,Cleveland,59.87,,,,,Single-ply,SBD,M
Boys,59.87,DQ,Aaron Hale,Hamshire-Fannett,59.87,,,,,Single-ply,SBD,M
Boys,59.87,DQ,Kevin Sanders #5,Sour Lake Hardin-Jefferson,59.87,,,,,Single-ply,SBD,M
Boys,74.84,1,Drevion Cooper,Coldspring-Oakhurst,67.36,192.78,99.79,183.7,476.27,Single-ply,SBD,M
Boys,74.84,2,Tyler Harrison,Cleveland,67.36,161.03,95.25,163.29,419.57,Single-ply,SBD,M
Boys,67.13,3,Cole Priddy,Sour Lake Hardin-Jefferson,64.59,149.69,83.91,170.1,403.7,Single-ply,SBD,M
Boys,67.13,4,Prosperity Gomez,Coldspring-Oakhurst,63.14,163.29,79.38,156.49,399.16,Single-ply,SBD,M
Boys,74.84,5,Fabien Salazar,Cleveland,67.36,142.88,74.84,149.69,367.41,Single-ply,SBD,M
Boys,67.13,6,Brennan Drounette,Hamshire-Fannett,63.05,138.35,95.25,131.54,365.14,Single-ply,SBD,M
Boys,67.13,7,Joey Sample,Coldspring-Oakhurst,60.87,131.54,77.11,138.35,347,Single-ply,SBD,M
Boys,74.84,8,Eric Perez,Cleveland,67.36,106.59,77.11,129.27,312.98,Single-ply,SBD,M
Boys,67.13,9,Christian Randell,Cleveland,62.23,120.2,68.04,115.67,303.91,Single-ply,SBD,M
Boys,67.13,10,Cody Byrd,Hamshire-Fannett,64.77,106.59,63.5,102.06,272.16,Single-ply,SBD,M
Boys,74.84,DQ,Bradley Navarro,Cleveland,67.36,140.61,81.65,,,Single-ply,SBD,M
Boys,74.84,1,Eddie Cross,Coldspring-Oakhurst,72.57,170.1,92.99,197.31,460.4,Single-ply,SBD,M
Boys,82.1,2,Dylan Reeves #1,Cleveland,75.07,172.37,99.79,172.37,444.52,Single-ply,SBD,M
Boys,74.84,3,Skylar Mallard,Coldspring-Oakhurst,68.4,142.88,83.91,181.44,408.23,Single-ply,SBD,M
Boys,74.84,4,Casey Torres,Coldspring-Oakhurst,72.85,142.88,81.65,149.69,374.21,Single-ply,SBD,M
Boys,74.84,5,Hunter Hentrich,Sour Lake Hardin-Jefferson,73.03,131.54,68.04,156.49,356.07,Single-ply,SBD,M
Boys,74.84,6,Alan Asher,Sour Lake Hardin-Jefferson,68.31,122.47,77.11,151.95,351.53,Single-ply,SBD,M
Boys,74.84,7,Landon Richard,Hamshire-Fannett,70.85,129.27,61.23,102.06,292.57,Single-ply,SBD,M
Boys,89.81,1,Josh Bailey,Hamshire-Fannett,82.33,224.53,129.27,206.38,560.19,Single-ply,SBD,M
Boys,82.1,2,Tanner Jones,Sour Lake Hardin-Jefferson,75.93,208.65,122.47,226.8,557.92,Single-ply,SBD,M
Boys,89.81,3,Andrew Harrison,Coldspring-Oakhurst,82.28,185.97,111.13,208.65,505.76,Single-ply,SBD,M
Boys,82.1,4,Garrett Ames,Sour Lake Hardin-Jefferson,82.01,185.97,120.2,197.31,503.49,Single-ply,SBD,M
Boys,82.1,5,Matthew Peddycoat,Hamshire-Fannett,78.47,163.29,104.33,138.35,405.97,Single-ply,SBD,M
Boys,89.81,6,Austin Cartwright,Cleveland,82.33,156.49,79.38,158.76,394.63,Single-ply,SBD,M
Boys,82.1,7,Dylan Alsobrooks,Cleveland,81.83,142.88,90.72,158.76,392.36,Single-ply,SBD,M
Boys,89.81,8,Monroe Harding,Cleveland,82.33,136.08,65.77,156.49,358.34,Single-ply,SBD,M
Boys,82.1,9,Victor Martinez,Cleveland,79.61,108.86,65.77,120.2,294.84,Single-ply,SBD,M
Boys,82.1,10,Isaiah Guajardo,Sour Lake Hardin-Jefferson,76.02,79.38,61.23,97.52,238.14,Single-ply,SBD,M
Boys,89.81,11,Dustin Allen,Cleveland,82.33,167.83,,,167.83,Single-ply,S,M
Boys,89.81,1,Charles Boutte,Hamshire-Fannett,83.91,226.8,113.4,181.44,521.63,Single-ply,SBD,M
Boys,89.81,2,Dillon Myers,Hamshire-Fannett,87.72,170.1,90.72,158.76,419.57,Single-ply,SBD,M
Boys,89.81,3,Jonathan Rodriguez #5,Cleveland,84.55,151.95,99.79,156.49,408.23,Single-ply,SBD,M
Boys,89.81,4,David McNair,Sour Lake Hardin-Jefferson,85.46,147.42,79.38,167.83,394.63,Single-ply,SBD,M
Boys,89.81,DQ,Timoteo Flores,Sour Lake Hardin-Jefferson,89.81,,,,,Single-ply,SBD,M
Boys,89.81,DQ,David Reeves,Cleveland,89.81,,,,,Single-ply,SBD,M
Boys,99.79,1,Casen Carter,Hamshire-Fannett,95.25,206.38,149.69,208.65,564.72,Single-ply,SBD,M
Boys,109.77,2,Carlos Vega-Castro,Cleveland,99.88,188.24,106.59,163.29,458.13,Single-ply,SBD,M
Boys,124.74,1,Roe Wilkins,Sour Lake Hardin-Jefferson,113.85,215.46,133.81,197.31,546.58,Single-ply,SBD,M
Boys,124.74,2,Codi Leger,Hamshire-Fannett,123.83,192.78,113.4,174.63,480.81,Single-ply,SBD,M
Boys,124.74,3,David McCoy,Sour Lake Hardin-Jefferson,123.38,183.7,102.06,188.24,474,Single-ply,SBD,M
Boys,124.74,4,Alex Huerta,Cleveland,122.65,192.78,97.52,145.15,435.45,Single-ply,SBD,M
Boys,124.74,5,Clayton Warren,Coldspring-Oakhurst,124.01,154.22,102.06,156.49,412.77,Single-ply,SBD,M
Boys,124.74,6,Tim Nottgrass,Coldspring-Oakhurst,121.47,136.08,83.91,136.08,356.07,Single-ply,SBD,M
Boys,124.74+,1,Henry Paredez,Cleveland,128.91,197.31,120.2,170.1,487.61,Single-ply,SBD,M
Boys,124.74+,2,Michael Jauer,Sour Lake Hardin-Jefferson,144.24,172.37,113.4,179.17,464.93,Single-ply,SBD,M
Boys,124.74+,3,Johnathan Hughes,Cleveland,136.08,83.91,58.97,136.08,278.96,Single-ply,SBD,M
Boys,124.74+,DQ,Walter Lopez,Cleveland,150.23,,,,,Single-ply,SBD,M
Boys,124.74+,DQ,Travis Morrison,Coldspring-Oakhurst,136.08,,,,,Single-ply,SBD,M
